{
  "breadcrumbs": [
    {
      "label": "Company Name",
      "signal_field_name": "q_organization_name",
      "value": "7Rivers",
      "display_name": "7Rivers"
    }
  ],
  "partial_results_only": false,
  "has_join": false,
  "disable_eu_prospecting": false,
  "partial_results_limit": 10000,
  "pagination": {
    "page": 1,
    "per_page": 10,
    "total_entries": 15,
    "total_pages": 2
  },
  "accounts": [],
  "organizations": [
    {
      "id": "55696632736964257d6a1e00",
      "name": "7 River Systems",
      "website_url": "http://www.7riversys.com",
      "blog_url": null,
      "angellist_url": null,
      "linkedin_url": "http://www.linkedin.com/company/7-river-systems",
      "twitter_url": "https://twitter.com/7riversys",
      "facebook_url": "https://facebook.com/7riversys",
      "primary_phone": {
        "number": "+1 301-909-8640",
        "source": "Owler",
        "sanitized_number": "+13019098640"
      },
      "languages": ["English"],
      "alexa_ranking": null,
      "phone": "+1 301-909-8640",
      "linkedin_uid": "3366209",
      "founded_year": 2013,
      "publicly_traded_symbol": null,
      "publicly_traded_exchange": null,
      "logo_url": "https://zenprospect-production.s3.amazonaws.com/uploads/pictures/6863be6b3bad7a0001e56c4d/picture",
      "crunchbase_url": null,
      "primary_domain": "7riversys.com",
      "sanitized_phone": "+13019098640",
      "owned_by_organization_id": null,
      "organization_revenue_printed": "2M",
      "organization_revenue": 2029000,
      "intent_strength": null,
      "show_intent": true,
      "has_intent_signal_account": false,
      "intent_signal_account": null,
      "organization_headcount_six_month_growth": 0,
      "organization_headcount_twelve_month_growth": 0.3333333333333333,
      "organization_headcount_twenty_four_month_growth": -0.2
    },
    {
      "id": "636cb7f336bda60001eafff1",
      "name": "The Center: 7 Rivers LGBTQ Connection",
      "website_url": "http://www.7riverslgbtq.org",
      "blog_url": null,
      "angellist_url": null,
      "linkedin_url": "http://www.linkedin.com/company/the-center-7-rivers-lgbtq-connection",
      "twitter_url": "https://twitter.com/lgbtq7rivers",
      "facebook_url": "https://facebook.com/pages/LGBT-Resource-Center-for-the-Seven-Rivers-Region/109846365003",
      "primary_phone": {
        "number": "+1 608-784-0452",
        "source": "Owler",
        "sanitized_number": "+16087840452"
      },
      "languages": [],
      "alexa_ranking": null,
      "phone": "+1 608-784-0452",
      "linkedin_uid": "70988863",
      "founded_year": 2004,
      "publicly_traded_symbol": null,
      "publicly_traded_exchange": null,
      "logo_url": "https://zenprospect-production.s3.amazonaws.com/uploads/pictures/66dfd8607dd8640001a8d6fd/picture",
      "crunchbase_url": null,
      "primary_domain": "7riverslgbtq.org",
      "sanitized_phone": "+16087840452",
      "owned_by_organization_id": null,
      "organization_revenue_printed": "6.2M",
      "organization_revenue": 6217000,
      "intent_strength": null,
      "show_intent": true,
      "has_intent_signal_account": false,
      "intent_signal_account": null,
      "organization_headcount_six_month_growth": 0,
      "organization_headcount_twelve_month_growth": -1,
      "organization_headcount_twenty_four_month_growth": -1
    },
    {
      "id": "6466f2003d6f7400012811f3",
      "name": "7Rivers",
      "website_url": null,
      "blog_url": null,
      "angellist_url": null,
      "linkedin_url": "http://www.linkedin.com/company/7rivers",
      "twitter_url": null,
      "facebook_url": null,
      "primary_phone": {},
      "languages": [],
      "alexa_ranking": null,
      "phone": null,
      "linkedin_uid": "76968137",
      "founded_year": null,
      "publicly_traded_symbol": null,
      "publicly_traded_exchange": null,
      "logo_url": "https://zenprospect-production.s3.amazonaws.com/uploads/pictures/63edac0a998f12000100b12d/picture",
      "crunchbase_url": null,
      "primary_domain": null,
      "owned_by_organization_id": null,
      "organization_revenue_printed": null,
      "organization_revenue": 0,
      "intent_strength": null,
      "show_intent": true,
      "has_intent_signal_account": false,
      "intent_signal_account": null,
      "organization_headcount_six_month_growth": 0,
      "organization_headcount_twelve_month_growth": 0,
      "organization_headcount_twenty_four_month_growth": 0
    },
    {
      "id": "5ed55d24c2dff4000128fcf5",
      "name": "Big Brothers Big Sisters 7 Rivers Region",
      "website_url": "http://www.7riversbbbs.org",
      "blog_url": null,
      "angellist_url": null,
      "linkedin_url": "http://www.linkedin.com/company/big-brothers-big-sisters-7-rivers-region",
      "twitter_url": null,
      "facebook_url": "https://www.facebook.com/BBBS7riversregion",
      "primary_phone": {
        "number": "+1 608-782-2227",
        "source": "Owler",
        "sanitized_number": "+16087822227"
      },
      "languages": [],
      "alexa_ranking": null,
      "phone": "+1 608-782-2227",
      "linkedin_uid": "37044716",
      "founded_year": 1969,
      "publicly_traded_symbol": null,
      "publicly_traded_exchange": null,
      "logo_url": "https://zenprospect-production.s3.amazonaws.com/uploads/pictures/66e69f3bcb1613000147e38c/picture",
      "crunchbase_url": null,
      "primary_domain": "7riversbbbs.org",
      "sanitized_phone": "+16087822227",
      "owned_by_organization_id": null,
      "organization_revenue_printed": "4.5M",
      "organization_revenue": 4482000,
      "intent_strength": null,
      "show_intent": true,
      "has_intent_signal_account": false,
      "intent_signal_account": null,
      "organization_headcount_six_month_growth": 0,
      "organization_headcount_twelve_month_growth": 0,
      "organization_headcount_twenty_four_month_growth": 0
    },
    {
      "id": "56d727b5f3e5bb15f30038a0",
      "name": "7 Rivers Recycling, LLC",
      "website_url": "http://www.7riversrecycling.com",
      "blog_url": null,
      "angellist_url": null,
      "linkedin_url": "http://www.linkedin.com/company/7-rivers-recycling-llc",
      "twitter_url": null,
      "facebook_url": null,
      "primary_phone": {
        "number": "+1 608-783-6727",
        "source": "Scraped",
        "sanitized_number": "+16087836727"
      },
      "languages": [],
      "alexa_ranking": null,
      "phone": "+1 608-783-6727",
      "linkedin_uid": "10304332",
      "founded_year": 2012,
      "publicly_traded_symbol": null,
      "publicly_traded_exchange": null,
      "logo_url": "https://zenprospect-production.s3.amazonaws.com/uploads/pictures/66d92a113c978a0001c42b87/picture",
      "crunchbase_url": null,
      "primary_domain": "7riversrecycling.com",
      "sanitized_phone": "+16087836727",
      "owned_by_organization_id": null,
      "organization_revenue_printed": null,
      "organization_revenue": 0,
      "intent_strength": null,
      "show_intent": true,
      "has_intent_signal_account": false,
      "intent_signal_account": null,
      "organization_headcount_six_month_growth": 0.5,
      "organization_headcount_twelve_month_growth": 0.5,
      "organization_headcount_twenty_four_month_growth": 0.5
    },
    {
      "id": "5a9f691fa6da98d97701df5e",
      "name": "Seven Rivers Inc.",
      "website_url": "http://www.7rivers.ph",
      "blog_url": null,
      "angellist_url": null,
      "linkedin_url": "http://www.linkedin.com/company/sevenrivers",
      "twitter_url": null,
      "facebook_url": null,
      "primary_phone": {},
      "languages": [],
      "alexa_ranking": null,
      "phone": null,
      "linkedin_uid": "16275176",
      "founded_year": 2002,
      "publicly_traded_symbol": null,
      "publicly_traded_exchange": null,
      "logo_url": "https://zenprospect-production.s3.amazonaws.com/uploads/pictures/685b87f0e3a3160001c58dcb/picture",
      "crunchbase_url": null,
      "primary_domain": "7rivers.ph",
      "owned_by_organization_id": null,
      "organization_revenue_printed": null,
      "organization_revenue": 0,
      "intent_strength": null,
      "show_intent": true,
      "has_intent_signal_account": false,
      "intent_signal_account": null,
      "organization_headcount_six_month_growth": 0,
      "organization_headcount_twelve_month_growth": -0.05,
      "organization_headcount_twenty_four_month_growth": -0.05
    },
    {
      "id": "67d8ec6ec79abc000193a768",
      "name": "7 Rivers to the Coast",
      "website_url": "http://www.7rivers2coast.org",
      "blog_url": null,
      "angellist_url": null,
      "linkedin_url": "http://www.linkedin.com/company/7-rivers-to-the-coast",
      "twitter_url": null,
      "facebook_url": null,
      "primary_phone": {},
      "languages": [],
      "alexa_ranking": null,
      "phone": null,
      "linkedin_uid": "106475392",
      "founded_year": 2024,
      "publicly_traded_symbol": null,
      "publicly_traded_exchange": null,
      "logo_url": "https://zenprospect-production.s3.amazonaws.com/uploads/pictures/67d8ec715c9955000182ee95/picture",
      "crunchbase_url": null,
      "primary_domain": "7rivers2coast.org",
      "owned_by_organization_id": null,
      "organization_revenue_printed": null,
      "organization_revenue": 0,
      "intent_strength": null,
      "show_intent": true,
      "has_intent_signal_account": false,
      "intent_signal_account": null,
      "organization_headcount_six_month_growth": 0,
      "organization_headcount_twelve_month_growth": 0,
      "organization_headcount_twenty_four_month_growth": null
    },
    {
      "id": "64d5519dd62f1000bcbeaf9f",
      "name": "7Rivers, Inc.",
      "website_url": "http://www.7riversinc.com",
      "blog_url": null,
      "angellist_url": null,
      "linkedin_url": "http://www.linkedin.com/company/7rivers-inc",
      "twitter_url": null,
      "facebook_url": "https://www.facebook.com/people/7Rivers-Inc/61567091014120/",
      "primary_phone": {
        "number": "+1 800-952-5210",
        "source": "Account",
        "sanitized_number": "+18009525210"
      },
      "languages": [],
      "alexa_ranking": null,
      "phone": "+1 800-952-5210",
      "linkedin_uid": "96578617",
      "founded_year": 2023,
      "publicly_traded_symbol": null,
      "publicly_traded_exchange": null,
      "logo_url": "https://zenprospect-production.s3.amazonaws.com/uploads/pictures/685d34899ffda900013e7194/picture",
      "crunchbase_url": null,
      "primary_domain": "7riversinc.com",
      "sanitized_phone": "+18009525210",
      "owned_by_organization_id": null,
      "organization_revenue_printed": null,
      "organization_revenue": 0,
      "intent_strength": null,
      "show_intent": true,
      "has_intent_signal_account": false,
      "intent_signal_account": null,
      "organization_headcount_six_month_growth": 0.02631578947368421,
      "organization_headcount_twelve_month_growth": 0.3,
      "organization_headcount_twenty_four_month_growth": 38
    },
    {
      "id": "67418b79031d1b0001f7bbe0",
      "name": "7 Rivers Lean Consortium",
      "website_url": "http://www.7riverslean.org",
      "blog_url": null,
      "angellist_url": null,
      "linkedin_url": "http://www.linkedin.com/company/7-rivers-lean-consortium",
      "twitter_url": null,
      "facebook_url": "https://www.facebook.com/7RiversLean",
      "primary_phone": {},
      "languages": [],
      "alexa_ranking": null,
      "phone": null,
      "linkedin_uid": "28155223",
      "founded_year": 2015,
      "publicly_traded_symbol": null,
      "publicly_traded_exchange": null,
      "logo_url": "https://zenprospect-production.s3.amazonaws.com/uploads/pictures/66f8a67c80f5c8000128361c/picture",
      "crunchbase_url": null,
      "primary_domain": "7riverslean.org",
      "owned_by_organization_id": null,
      "organization_revenue_printed": null,
      "organization_revenue": 0,
      "intent_strength": null,
      "show_intent": true,
      "has_intent_signal_account": false,
      "intent_signal_account": null,
      "organization_headcount_six_month_growth": null,
      "organization_headcount_twelve_month_growth": null,
      "organization_headcount_twenty_four_month_growth": null
    },
    {
      "id": "67458c6cb55fd900016177a3",
      "name": "7 Rivers Ltd",
      "website_url": "http://www.7rivers.asia",
      "blog_url": null,
      "angellist_url": null,
      "linkedin_url": "http://www.linkedin.com/company/7-rivers-ltd",
      "twitter_url": null,
      "facebook_url": null,
      "primary_phone": {},
      "languages": [],
      "alexa_ranking": null,
      "phone": null,
      "linkedin_uid": "99521490",
      "founded_year": 2007,
      "publicly_traded_symbol": null,
      "publicly_traded_exchange": null,
      "logo_url": "https://zenprospect-production.s3.amazonaws.com/uploads/pictures/67034f4fc110920001be4611/picture",
      "crunchbase_url": null,
      "primary_domain": "7rivers.asia",
      "owned_by_organization_id": null,
      "organization_revenue_printed": null,
      "organization_revenue": 0,
      "intent_strength": null,
      "show_intent": true,
      "has_intent_signal_account": false,
      "intent_signal_account": null,
      "organization_headcount_six_month_growth": null,
      "organization_headcount_twelve_month_growth": null,
      "organization_headcount_twenty_four_month_growth": null
    }
  ],
  "model_ids": [
    "64d5519dd62f1000bcbeaf9f",
    "6466f2003d6f7400012811f3",
    "5a9f691fa6da98d97701df5e",
    "67418b79031d1b0001f7bbe0",
    "56d727b5f3e5bb15f30038a0",
    "55696632736964257d6a1e00",
    "636cb7f336bda60001eafff1",
    "5ed55d24c2dff4000128fcf5",
    "67d8ec6ec79abc000193a768",
    "67458c6cb55fd900016177a3"
  ],
  "num_fetch_result": null,
  "derived_params": null
}
